<?xml version="1.0" encoding="UTF-8" standalone="no"?>
<svg
   version="1.0"
   width="30.024815"
   height="23.982725"
   viewBox="0 0 4.5037222 3.5974088"
   id="svg6"
   sodipodi:docname="speaker_on.svg"
   inkscape:version="1.1.2 (b8e25be833, 2022-02-05)"
   xmlns:inkscape="http://www.inkscape.org/namespaces/inkscape"
   xmlns:sodipodi="http://sodipodi.sourceforge.net/DTD/sodipodi-0.dtd"
   xmlns="http://www.w3.org/2000/svg"
   xmlns:svg="http://www.w3.org/2000/svg"
   xmlns:rdf="http://www.w3.org/1999/02/22-rdf-syntax-ns#"
   xmlns:cc="http://creativecommons.org/ns#"
   xmlns:dc="http://purl.org/dc/elements/1.1/">
  <metadata
     id="metadata12">
    <rdf:RDF>
      <cc:Work
         rdf:about="">
        <dc:format>image/svg+xml</dc:format>
        <dc:type
           rdf:resource="http://purl.org/dc/dcmitype/StillImage" />
        <dc:title />
      </cc:Work>
    </rdf:RDF>
  </metadata>
  <defs
     id="defs10" />
  <sodipodi:namedview
     pagecolor="#ffffff"
     bordercolor="#666666"
     borderopacity="1"
     objecttolerance="10"
     gridtolerance="10"
     guidetolerance="10"
     inkscape:pageopacity="0"
     inkscape:pageshadow="2"
     inkscape:window-width="2400"
     inkscape:window-height="1261"
     id="namedview8"
     showgrid="false"
     inkscape:zoom="21.878106"
     inkscape:cx="0.15997729"
     inkscape:cy="14.100855"
     inkscape:window-x="2391"
     inkscape:window-y="-9"
     inkscape:window-maximized="1"
     inkscape:current-layer="svg6"
     inkscape:document-rotation="0"
     fit-margin-top="0"
     fit-margin-left="0"
     fit-margin-right="0"
     fit-margin-bottom="0"
     inkscape:pagecheckerboard="0" />
  <g
     id="g833"
     transform="matrix(0.06513431,0,0,0.06664286,-0.22797008,-0.75101816)"
     style="fill:none;stroke:#1e96f3;stroke-opacity:1">
    <path
       d="M 39.389,13.769 22.235,28.606 H 6 v 19.093 h 15.989 l 17.4,15.051 z"
       style="fill:none;stroke:#1e96f3;stroke-width:5;stroke-linejoin:round;stroke-opacity:1"
       id="path2" />
    <path
       d="M 48,27.6 A 19.5,19.5 0 0 1 48,49 m 7.1,-28.5 a 30,30 0 0 1 0,35.6 M 61.6,14 a 38.8,38.8 0 0 1 0,48.6"
       style="fill:none;stroke:#1e96f3;stroke-width:5;stroke-linecap:round;stroke-opacity:1"
       id="path4" />
  </g>
</svg>
